[
	"Achats publics",
	"Agriculture/Alimentation",
	"Biodiversité",
	"Changement climatique",
	"Déchets/réemploi",
	"Démocratie",
	"Eau",
	"Économie",
	"Efficacité Energétique",
	"Énergie",
	"Finance",
	"Logement",
	"Mobilité",
	"Numérique",
	"Santé",
	"Sensibilisation",
	"Vivre-ensemble",
	"Inclusion",
	"Solidarité", 
	"Associatif",
	"Long terme",
	"Citoyenneté", 
	"Publicité"
]