{
    "slug" : "ctenat",
    "welcomeTpl" : "costum.views.custom.ctenat.home",
    "docTpl" : "costum.views.custom.ctenat.doc",
    "sourceKey" : true,
    "filters" : {
        "sourceKey" : true
    },
    "js" : {
        "url" : "/js/ctenat.js"
    },
    "initScript" : "costum.views.custom.ctenat.init",
    "favicon" : "/images/ctenat/logo.png",
    "metaImg" : "/images/ctenat/banner.jpg",
    "logoMin" : "/images/ctenat/logo.png",
    "css" : {
        "urls" : [ 
            "index.css"
        ],
        "loader" : {
            "background" : "white",
            "ring1" : {
                "color" : "#22252A",
                "height" : 360,
                "width" : 360,
                "left" : -15,
                "borderWidth" : 4,
                "top" : -35
            },
            "ring2" : {
                "color" : "#65BA91",
                "height" : 350,
                "width" : 350,
                "left" : -10,
                "borderWidth" : 5,
                "top" : -30
            }
        },
        "progress" : {
            "value" : {
                "background" : "#22252A"
            },
            "bar" : {
                "background" : "#fff"
            }
        },
        "menuTop" : {
            "background" : "white",
            "button" : {
                "paddingTop" : 0,
                "fontSize" : 30,
                "color" : "#22252A"
            },
            "scopeBtn" : {
                "color" : "#22252A"
            },
            "filterBtn" : {
                "color" : "#22252A"
            },
            "badge" : {
                "background" : "#22252A",
                "border" : "1px solid white"
            },
            "connectBtn" : {
                "background" : "#22252A",
                "color" : "white",
                "fontSize" : 18,
                "borderRadius" : 10,
                "padding" : "8px 15px"
            }
        },
        "menuApp" : {
            "background" : "#22252A",
            "button" : {
                "fontSize" : 25,
                "color" : "#fff",
                "hover" : {
                    "borderBottom" : "2px solid #fff"
                }
            }
        },
        "button" : {
            "footer" : {
                "add" : {
                    "bottom" : 60,
                    "background" : "transparent",
                    "color" : "white"
                },
                "toolbarAdds" : {
                    "bottom" : 50
                }
            }
        },
        "color" : {
            "purple" : "#22252A"
        }
    },
    "htmlConstruct" : {
        "appRendering" : "vertical",
        "element" : {
            "banner" : {
                "img" : "/images/ctenat/banner.jpg",
                "preferences" : false,
                "editButton" : {
                    "dynform" : true
                }
            },
            "initView" : "survey",
            "menuLeft" : {
                "detail" : {
                    "label" : "Fiche",
                    "id" : "btn-survey"
                },
                "community" : true,
                "events" : true,
                "projects" : true
            }
        },
        "footer" : {
            "donate" : false,
            "add" : true
        },
        "header" : {
            "menuTop" : {
                "navLeft" : {
                    "logo" : {
                        "height" : 40
                    },
                    "searchBar" : true,
                    "useFilter" : {
                        "scopeFilter" : true,
                        "showFilter" : true
                    }
                },
                "navRight" : {
                    "connected" : {
                        "dropdownUser" : {
                            "languages" : true,
                            "statistics" : false,
                            "documentation" : true,
                            "donate" : false,
                            "admin" : true,
                            "settings" : false,
                            "logout" : true
                        },
                        "userProfil" : {
                            "img" : true
                        },
                        "networkFloop" : true,
                        "notifications" : true,
                        "dda" : false,
                        "chat" : true,
                        "home" : false,
                        "app" : false
                    },
                    "disconnected" : {
                        "languages" : true,
                        "login" : true
                    }
                }
            }
        },
        "subMenu" : {
            "fontSize" : 40,
            "app" : true,
            "button" : true
        },
        "adminPanel" : {
            "add" : true,
            "statistic" : true,
            "directory" : {
                "types" : [ 
                    "projects"
                ],
                "actions" : [ 
                    [ 
                        "delete", 
                        "privatePublic"
                    ]
                ]
            },
            "community" : true,
            "reference" : {
                "initType" : [ 
                    "organizations", 
                    "projects"
                ]
            }
        },
        "directoryViewMode" : "block",
        "directory" : {
            "header" : {
                "map" : true,
                "viewMode" : false,
                "add" : true
            },
            "results" : {
                "projets" : {
                    "defaultImg" : "/images/ctenat/default_directory.png"
                }
            },
            "footer" : {
                "add" : true
            }
        },
        "footer" : {
            "url" : "costum.views.custom.ctenat.footer"
        },
        "redirect" : {
            "logged" : "welcome",
            "unlogged" : "welcome"
        }
    },
    "app" : {
        "#search" : {
            "icon" : "map-marker",
            "subdomainName" : "Les Territoires CTE",
            "placeholderMainSearch" : "what are you looking for ?",
            "useFilter" : false,
            "filters" : {
                "types" : [ 
                    "projects"
                ]
            }
        },
        "#live" : {
            "subdomainName" : "Les contrats de Transition en live",
            "placeholderMainSearch" : "what are you looking for ?",
            "sourceKey" : true,
            "formCreate" : true,
            "useFilter" : false
        },
        "#docs" : {
            "subdomainName" : "Documentation",
            "icon" : "book",
            "inMenu" : true
        }
    },
    "typeObj" : {
        "poi" : {
            "color" : "azure",
            "icon" : "book",
            "name" : "Ressources",
            "add" : false,
            "createLabel" : "Ajouter une ressource",
            "dynFormCostum" : {
                "beforeBuild" : {
                    "properties" : {
                        "section" : {
                            "inputType" : "tags",
                            "placeholder" : "Dans quelle Partie ?",
                            "data" : [ 
                                "what", 
                                "when", 
                                "where", 
                                "why", 
                                "who"
                            ],
                            "label" : [ 
                                "wh at", 
                                "wh en", 
                                "wh ere", 
                                "wh y", 
                                "wh o"
                            ]
                        }
                    }
                }
            },
            "onload" : {
                "actions" : {
                    "setTitle" : "Ajouter une ressource",
                    "html" : {
                        "infocustom" : "<br/>Dans un premier temps, veuillez inviter au moins une personne pour pouvoir former un groupe local valable sur un territoire",
                        "nametext > label" : "Titre de la documentation"
                    },
                    "hide" : {
                        "urlsarray" : 1,
                        "locationlocation" : 1,
                        "parentfinder" : 1
                    }
                }
            }
        },
        "projects" : {
            "color" : "dark",
            "icon" : "map-marker",
            "name" : "Territoire CTE",
            "add" : true,
            "createLabel" : "Candidater au CTE",
            "dynFormCostum" : {
                "beforeBuild" : {
                    "properties" : {
                        "scope" : {
                            "inputType" : "scope",
                            "label" : "Quel est votre territoire",
                            "order" : 5,
                            "subParams" : {
                                "cities" : {
                                    "type" : [ 
                                        "zones"
                                    ]
                                }
                            }
                        },
                        "links" : {
                            "order" : 6,
                            "inputType" : "finder",
                            "label" : "Nom des élus porteurs de la candidature ?",
                            "multiple" : true,
                            "invite" : true,
                            "type" : [ 
                                "persons"
                            ],
                            "roles" : [ 
                                "Elu"
                            ],
                            "openSearch" : true
                        },
                        "siren" : {
                            "order" : 7,
                            "inputType" : "text",
                            "label" : "Numéro SIREN?"
                        },
                        "why" : {
                            "order" : 8,
                            "inputType" : "textarea",
                            "markdown" : true,
                            "label" : "Pourquoi souhaitez-vous réaliser un CTE ? Quelles sont vos attentes vis-à-vis d’un CTE ?",
                            "rules" : {
                                "maxlength" : 2000
                            }
                        },
                        "documentation" : {
                            "inputType" : "uploader",
                            "label" : "Fichier à joindre à la candidature : lettre de candidature signée par l’ensemble des présidents des EPCI du territoire et de la structure porteuse éventuelle, adressée à Emmanuelle WARGON, secrétaire d’Etat auprès du ministre d’Etat, ministre de la transition écologique et solidaire",
                            "showUploadBtn" : false,
                            "docType" : "file",
                            "itemLimit" : 1,
                            "contentKey" : "file",
                            "order" : 8,
                            "domElement" : "documentationFile",
                            "placeholder" : "Le pdf de la mesure",
                            "afterUploadComplete" : null,
                            "template" : "qq-template-manual-trigger",
                            "filetypes" : [ 
                                "pdf"
                            ]
                        },
                        "nbHabitant" : {
                            "order" : 9,
                            "inputType" : "text",
                            "label" : "Nombre d'habitants concernés?"
                        },
                        "dispositif" : {
                            "order" : 10,
                            "inputType" : "textarea",
                            "markdown" : true,
                            "label" : "Quels sont les dispositifs actuellement mis en place sur tout ou partie du territoire (contractuels et/ou en lien avec la transition écologique) ? TEPCV, TEPOS, TIGA, Territoire d’industrie, Action coeur de ville, French Impact…",
                            "rules" : {
                                "maxlength" : 2000
                            }
                        },
                        "planPCAET" : {
                            "order" : 11,
                            "inputType" : "textarea",
                            "markdown" : true,
                            "label" : "Avez élaboré un Plan climat-air-énergie territorial (PCAET) sur votre territoire ?",
                            "rules" : {
                                "maxlength" : 2000
                            }
                        },
                        "singulartiy" : {
                            "order" : 12,
                            "inputType" : "textarea",
                            "markdown" : true,
                            "label" : "Qu'est ce qui constitue la singularité de votre territoire ? Quel est le contexte économique et quels sont ses enjeux en termes de transition écologique ?",
                            "rules" : {
                                "maxlength" : 2000
                            }
                        },
                        "caracteristique" : {
                            "order" : 13,
                            "inputType" : "textarea",
                            "markdown" : true,
                            "label" : "Quelles sont les caractéristiques de votre territoire sur lesquelles vous agissez/vous souhaiteriez agir dans le cadre du CTE ? (exemples : problèmes majeurs/risques auxquels vous êtes confrontés, thèmes sur lesquels vous vous êtes engagés à agir)",
                            "rules" : {
                                "maxlength" : 2000
                            }
                        },
                        "actions" : {
                            "order" : 14,
                            "inputType" : "textarea",
                            "markdown" : true,
                            "label" : "Quelles sont les actions envisagées dans votre projet de CTE ? Décrivez au moins 3 pistes d’actions.",
                            "rules" : {
                                "maxlength" : 2000
                            }
                        },
                        "actors" : {
                            "order" : 15,
                            "inputType" : "textarea",
                            "markdown" : true,
                            "label" : "Quelles sont les principales entreprises et associations présentes sur votre territoire ?",
                            "rules" : {
                                "maxlength" : 2000
                            }
                        },
                        "economy" : {
                            "order" : 16,
                            "inputType" : "textarea",
                            "markdown" : true,
                            "label" : "Quels acteurs socio-économiques prévoyez-vous de mobiliser pour le portage d’actions du CTE ?",
                            "rules" : {
                                "maxlength" : 2000
                            }
                        },
                        "inCharge" : {
                            "order" : 17,
                            "inputType" : "textarea",
                            "markdown" : true,
                            "label" : "Qui serait en charge du projet au sein de la collectivité (chargé de mission, équipe dédiée, élu...) ?",
                            "rules" : {
                                "maxlength" : 2000
                            }
                        },
                        "autreElu" : {
                            "order" : 18,
                            "inputType" : "textarea",
                            "markdown" : true,
                            "label" : "Autres élus engagés politiquement dans la réussite du projet (député, sénateur, maires) ?",
                            "rules" : {
                                "maxlength" : 2000
                            }
                        },
                        "contact" : {
                            "order" : 19,
                            "inputType" : "textarea",
                            "markdown" : true,
                            "label" : "Nom du référent local, Adresse postale, numéro de téléphone et adresse mail ?",
                            "rules" : {
                                "maxlength" : 2000
                            }
                        }
                    }
                },
                "onload" : {
                    "actions" : {
                        "setTitle" : "Territoire Candidat",
                        "html" : {
                            "infocustom" : "<br/>Dans un premier temps, veuillez inviter au moins une personne pour pouvoir former un groupe local valable sur un territoire"
                        },
                        "presetValue" : {
                            "public" : false,
                            "tags" : "cte,candidat",
                            "shortDescription" : "Nouveau Candidat au CTE"
                        },
                        "hide" : {
                            "publiccheckboxSimple" : 1,
                            "urltext" : 1,
                            "tagstags" : 1,
                            "shortDescriptiontextarea" : 1,
                            "parentfinder" : 1
                        }
                    }
                }
            }
        }
    },
    "searchOpenMenu" : [ 
        {
            "url" : "#search",
            "msg" : "Tous les territoires"
        }
    ]
}